[Tue Aug 17 12:17:47 2021] PHP 7.4.3 Development Server (http://0.0.0.0:5000) started
[Tue Aug 17 12:17:50 2021] 36.81.8.157:2231 Accepted
[Tue Aug 17 12:17:50 2021] 36.81.8.157:2231 [405]: GET /api/v1/user/login
[Tue Aug 17 12:17:50 2021] 36.81.8.157:2231 Closing
[Tue Aug 17 12:17:52 2021] 36.81.8.157:30860 Accepted
[Tue Aug 17 12:17:52 2021] 36.81.8.157:30860 [200]: GET /favicon.ico
[Tue Aug 17 12:17:52 2021] 36.81.8.157:30860 Closing
[Tue Aug 17 12:18:04 2021] 36.81.8.157:4958 Accepted
[Tue Aug 17 12:18:04 2021] 36.81.8.157:4958 [405]: GET /api/v1/user/login
[Tue Aug 17 12:18:04 2021] 36.81.8.157:4958 Closing
[Tue Aug 17 12:18:06 2021] 36.81.8.157:10826 Accepted
[Tue Aug 17 12:18:06 2021] 36.81.8.157:10826 [200]: GET /favicon.ico
[Tue Aug 17 12:18:06 2021] 36.81.8.157:10826 Closing
[Tue Aug 17 12:18:07 2021] 36.81.8.157:8925 Accepted
[Tue Aug 17 12:19:27 2021] 36.81.8.157:8925 Closed without sending a request; it was probably just an unused speculative preconnection
[Tue Aug 17 12:19:27 2021] 36.81.8.157:8925 Closing
[Tue Aug 17 20:42:30 2021] 162.142.125.58:49602 Accepted
[Tue Aug 17 20:42:31 2021] 162.142.125.58:49602 Invalid request (Connection reset by peer)
[Tue Aug 17 20:42:31 2021] 162.142.125.58:49602 Closing
[Tue Aug 17 20:42:32 2021] 162.142.125.58:50958 Accepted
[Tue Aug 17 20:42:32 2021] 162.142.125.58:50958 Invalid request (Unsupported SSL request)
[Tue Aug 17 20:42:32 2021] 162.142.125.58:50958 Closing
[Tue Aug 17 20:42:32 2021] 162.142.125.58:39602 Accepted
[Tue Aug 17 20:42:33 2021] 162.142.125.58:39602 [200]: GET /
[Tue Aug 17 20:42:33 2021] 162.142.125.58:39602 Closing
[Tue Aug 17 20:42:34 2021] 162.142.125.58:47700 Accepted
[Tue Aug 17 20:42:34 2021] 162.142.125.58:47700 [200]: GET /
[Tue Aug 17 20:42:34 2021] 162.142.125.58:47700 Closing
[Tue Aug 17 23:01:16 2021] 209.17.96.210:57103 Accepted
[Tue Aug 17 23:01:19 2021] 209.17.96.210:57103 [200]: GET /
[Tue Aug 17 23:01:19 2021] 209.17.96.210:57103 Closing
[Tue Aug 17 23:14:16 2021] 209.17.96.114:36131 Accepted
[Tue Aug 17 23:14:16 2021] 209.17.96.114:36131 [200]: GET /
[Tue Aug 17 23:14:16 2021] 209.17.96.114:36131 Closing
[Wed Aug 18 01:08:25 2021] 36.81.14.236:26014 Accepted
[Wed Aug 18 01:08:25 2021] 36.81.14.236:26014 [404]: GET /mccc/mccc/api/v1/geojson/layer/112.05505371093751x-1.9716566508363198x116.14196777343751x-0.324094951369079/9/1 - No such file or directory
[Wed Aug 18 01:08:25 2021] 36.81.14.236:26014 Closing
[Wed Aug 18 01:08:25 2021] 36.81.14.236:9856 Accepted
[Wed Aug 18 01:08:25 2021] 36.81.14.236:9856 [200]: GET /favicon.ico
[Wed Aug 18 01:08:25 2021] 36.81.14.236:9856 Closing
[Wed Aug 18 01:08:46 2021] 36.81.14.236:21997 Accepted
[Wed Aug 18 01:08:46 2021] 36.81.14.236:21997 [404]: GET //api/v1/geojson/layer/112.05505371093751x-1.9716566508363198x116.14196777343751x-0.324094951369079/9/1 - No such file or directory
[Wed Aug 18 01:08:46 2021] 36.81.14.236:21997 Closing
[Wed Aug 18 01:08:46 2021] 36.81.14.236:5255 Accepted
[Wed Aug 18 01:08:46 2021] 36.81.14.236:5255 [200]: GET /favicon.ico
[Wed Aug 18 01:08:46 2021] 36.81.14.236:5255 Closing
[Wed Aug 18 01:08:50 2021] 36.81.14.236:28256 Accepted
[Wed Aug 18 01:08:50 2021] 36.81.14.236:28256 [404]: GET /api/v1/geojson/layer/112.05505371093751x-1.9716566508363198x116.14196777343751x-0.324094951369079/9/1 - No such file or directory
[Wed Aug 18 01:08:50 2021] 36.81.14.236:28256 Closing
[Wed Aug 18 01:08:50 2021] 36.81.14.236:21214 Accepted
[Wed Aug 18 01:08:50 2021] 36.81.14.236:21214 [200]: GET /favicon.ico
[Wed Aug 18 01:08:50 2021] 36.81.14.236:21214 Closing
[Wed Aug 18 01:08:53 2021] 36.81.14.236:3633 Accepted
[Wed Aug 18 01:08:53 2021] 36.81.14.236:3633 [200]: GET /
[Wed Aug 18 01:08:53 2021] 36.81.14.236:3633 Closing
[Wed Aug 18 01:08:53 2021] 36.81.14.236:8874 Accepted
[Wed Aug 18 01:08:53 2021] 36.81.14.236:8874 [200]: GET /favicon.ico
[Wed Aug 18 01:08:53 2021] 36.81.14.236:8874 Closing
[Wed Aug 18 01:09:02 2021] 36.81.14.236:16008 Accepted
[Wed Aug 18 01:09:03 2021] 36.81.14.236:16008 [405]: GET /api/v1/user/login
[Wed Aug 18 01:09:03 2021] 36.81.14.236:16008 Closing
[Wed Aug 18 01:09:03 2021] 36.81.14.236:16859 Accepted
[Wed Aug 18 01:09:03 2021] 36.81.14.236:16859 [200]: GET /favicon.ico
[Wed Aug 18 01:09:03 2021] 36.81.14.236:16859 Closing
[Wed Aug 18 01:09:15 2021] 36.81.14.236:3701 Accepted
[Wed Aug 18 01:09:15 2021] 36.81.14.236:3701 [404]: GET /api/v1/geojson/layer/108.92532348632814x-7.536764322084078x110.96878051757814x-6.719164960283201/10/1 - No such file or directory
[Wed Aug 18 01:09:15 2021] 36.81.14.236:3701 Closing
[Wed Aug 18 01:09:15 2021] 36.81.14.236:31692 Accepted
[Wed Aug 18 01:09:15 2021] 36.81.14.236:31692 [200]: GET /favicon.ico
[Wed Aug 18 01:09:15 2021] 36.81.14.236:31692 Closing
